automation\Pages.class
webcomponents\Component$1.class
automation\utils\ITestData.class
Enum\Login.class
webcomponents\DatePicker.class
webcomponents\Component.class
webcomponents\GridPaginada.class
automation\utils\ArquivoUtils.class
drive\DriverFactory.class
CommonMethods\CommonMethods.class
session\Session.class
webcomponents\Grid.class
webcomponents\Window.class
automation\utils\SeleniumUtils.class
automation\ProjectBase.class
automation\utils\TestData.class
automation\PageController.class
automation\utils\JpgToPdf.class
automation\utils\LogUtils.class
automation\utils\Iverify.class
automation\AbstractPage.class
automation\utils\TestUtil.class
automation\AbstractTest.class
stepDefinition\FormularioContatoStepDefinition.class
automation\utils\PageListener.class
webcomponents\Label.class
automation\utils\IVerifyMethod.class
automation\utils\PageInitiater.class
test\Simulacao.class
cucumberTest\TestRunner.class
paginas\PaginaSimulador.class
service\RequisicaoAPI.class
webcomponents\Radio.class
session\SuiteConfig.class
stepDefinition\LoginStepDefinition.class
webcomponents\TextBox.class
automation\utils\PropertiesUtils.class
webcomponents\GridPlc.class
stepDefinition\SimuladorStepDefinition.class
Enum\Enumerator.class
webcomponents\Combo.class
dto\SimuladorDTO.class
webcomponents\TreeView.class
automation\utils\VerifyDTO.class
dto\baseDTO\SimuladorDTOBase.class
session\ThreadManager.class
paginas\PaginaLoginBase.class
config\TestConfig.class
session\Suitesession.class
paginas\PaginaPesquisa.class
webcomponents\Check.class
webcomponents\Button.class
dto\UsuariosDTO.class
webcomponents\TextEditor.class
Enum\Etiqueta.class
